<svg width="1440" height="759" viewBox="0 0 1440 759" fill="none" xmlns="http://www.w3.org/2000/svg">
<path d="M2 0H1447V759H2V0Z" fill="#3a85ef"/>
<path fill-rule="evenodd" clip-rule="evenodd" d="M137.055 213.828C135.237 218.623 126.546 215.786 121.854 216.118C113.355 216.662 105.067 219.002 97.5324 222.986C93.8975 224.911 90.5268 228.196 86.8918 227.565C94.4262 217.08 110.437 213.513 129.454 213.065C131.85 213.015 135.468 210.493 137.055 213.828Z" fill="white" fill-opacity="0.22"/>
<path fill-rule="evenodd" clip-rule="evenodd" d="M146.935 229.092C145.415 233.024 142.507 229.705 139.335 229.092C124.861 229.987 112.188 233.306 102.093 239.046C98.6892 240.987 96.029 245.981 91.4523 244.389C91.6671 241.402 95.6821 239.859 98.2927 238.283C106.174 233.571 124.051 225.359 137.055 225.309C140.425 225.259 145.333 225.508 146.935 229.092Z" fill="white" fill-opacity="0.22"/>
<path fill-rule="evenodd" clip-rule="evenodd" d="M68.6674 233.671C67.0151 236.757 63.281 234.932 61.067 235.198C46.3453 236.973 31.921 241.469 24.5849 250.461C23.2135 252.12 22.5361 257.428 18.5046 255.803C18.3889 251.97 21.8091 247.093 24.5849 244.355C29.5417 239.528 37.8031 237.471 47.3862 235.198C54.4083 233.539 62.8184 229.524 68.6674 233.671Z" fill="white" fill-opacity="0.22"/>
<path fill-rule="evenodd" clip-rule="evenodd" d="M149.215 245.119C147.86 248.868 142.424 245.251 138.575 245.119C133.969 245.063 129.374 245.575 124.894 246.645C114.65 249.051 105.744 256.201 97.5323 258.855C97.334 254.227 104.24 252.136 108.933 249.698C116.319 245.865 129.504 239.943 141.615 241.303C144.077 241.585 148.372 241.718 149.215 245.119Z" fill="white" fill-opacity="0.22"/>
<path fill-rule="evenodd" clip-rule="evenodd" d="M71.7075 248.934C56.8372 252.252 42.7599 253.115 32.9454 261.145C30.7975 262.904 28.7156 264.861 26.8651 266.487C25.0145 268.113 25.1302 271.747 20.7847 269.54C26.5346 257.926 42.1816 251.456 58.7868 248.171C62.3227 247.474 69.4439 244.355 71.7075 248.934Z" fill="white" fill-opacity="0.22"/>
<path fill-rule="evenodd" clip-rule="evenodd" d="M148.455 258.093C146.522 262.506 142.722 258.773 140.095 258.856C130.363 259.171 117.607 263.734 109.693 268.014C105.976 270.021 104.092 274.302 99.7795 273.356C106.95 263.518 121.391 260.963 133.221 255.803C139.417 256.766 147.1 253.746 148.455 258.093Z" fill="white" fill-opacity="0.22"/>
<path fill-rule="evenodd" clip-rule="evenodd" d="M71.7075 262.672C70.4518 267.069 66.3211 264.978 63.347 265.725C55.4492 267.716 42.6441 271.78 35.9855 276.409C33.4245 278.184 30.8139 281.701 26.865 280.988C29.4756 273.107 38.6126 270.685 46.6922 268.014C54.3752 265.426 63.5122 261.71 71.7075 262.672Z" fill="white" fill-opacity="0.22"/>
<path fill-rule="evenodd" clip-rule="evenodd" d="M153.776 274.12C149.1 277.073 143.763 273.904 138.575 274.12C124.663 274.684 113.46 282.83 103.613 287.856C104.29 284.289 108.751 281.917 112.733 279.462C121.937 273.837 140.971 266.488 153.776 274.12Z" fill="white" fill-opacity="0.22"/>
<path fill-rule="evenodd" clip-rule="evenodd" d="M82.282 278.698C69.1961 284.123 51.3681 283.227 40.4797 290.909C37.3569 293.116 36.4481 296.981 32.1192 296.251C31.8548 290.859 41.4049 285.368 47.32 283.277C52.3108 281.909 57.3899 280.889 62.5209 280.225C67.6925 279.329 74.0868 277.321 77.7218 277.172C79.4732 277.105 80.9272 276.74 82.282 278.698Z" fill="white" fill-opacity="0.22"/>
<path fill-rule="evenodd" clip-rule="evenodd" d="M151.495 286.33C149.694 291.307 142.177 288.238 137.815 288.62C131.701 289.337 125.764 291.146 120.284 293.962C115.509 296.317 111.742 302.257 106.603 300.813C115.592 290.577 133.8 282.846 151.495 286.33Z" fill="white" fill-opacity="0.22"/>
<path fill-rule="evenodd" clip-rule="evenodd" d="M83.9342 296.251C74.8963 296.682 65.9741 296.782 58.0928 299.304C49.5506 302.025 43.999 308.695 36.8116 311.499C36.1838 305.36 44.5277 302.158 51.2524 299.304C57.986 296.221 65.1339 294.147 72.4675 293.149C75.9042 292.9 82.5794 291.489 83.9342 296.251Z" fill="white" fill-opacity="0.22"/>
<path fill-rule="evenodd" clip-rule="evenodd" d="M89.9485 307.682C88.2962 311.614 80.0349 308.462 73.9711 309.209C63.4957 310.536 54.7883 317.869 47.3861 318.367C47.3861 314.352 52.5412 313.589 55.7466 312.261C64.107 308.844 77.6556 302.921 89.9485 307.682Z" fill="white" fill-opacity="0.22"/>
<path fill-rule="evenodd" clip-rule="evenodd" d="M156.816 212.302C159.145 213.53 162.764 213.447 165.176 214.591C173.999 248.005 176.742 287.176 180.361 322.182C175.586 322.979 170.629 319.395 165.176 318.367C159.41 317.288 152.768 316.591 147.001 316.077C139.631 315.528 132.234 316.688 125.381 319.467C118.528 322.246 112.403 326.569 107.479 332.104C102.638 328.122 93.534 329.914 87.6519 332.104C76.9783 336.152 67.5934 343.717 59.5634 352.013C55.5577 355.884 51.7525 359.96 48.1628 364.223C44.7096 368.653 42.7599 376.484 35.2421 374.908C29.5583 367.409 27.8069 357.853 24.6015 348.96C15.5636 323.842 4.26209 295.687 -2 265.79C-0.529483 259.386 7.81445 257.877 4.08033 250.527C16.4393 231.282 42.0824 207.391 73.9877 216.947C85.0248 204.737 108.388 193.87 132.511 196.358C142.309 197.354 148.571 202.182 156.072 206.313C155.907 208.768 157.411 209.531 156.832 212.401L156.816 212.302ZM64.8672 338.972C64.8672 340.781 63.5454 341.229 64.1071 343.551C68.3147 340.71 72.3736 337.654 76.2678 334.393C73.5746 335.737 74.3842 333.896 71.7076 333.63C70.551 336.55 69.6588 339.736 64.8672 338.972ZM75.5078 324.472C71.3771 326.679 70.171 331.838 67.9074 335.92C72.5667 334.261 74.0868 329.416 75.5078 324.472ZM77.7879 219.95C78.6471 223.932 80.7289 226.587 80.068 232.161C86.4127 246.147 88.3293 264.048 93.7323 279.478C98.1603 292.137 102.688 304.364 105.133 317.637C109.445 316.79 111.742 312.925 116.534 310.768C129.884 304.679 150.075 304.596 164.449 309.242C165.507 287.989 158.666 269.855 158.369 250.494C158.369 248.221 156.386 247.906 156.089 245.915C158.138 234.434 154.156 222.422 153.809 210.809C136.047 191.978 88.412 200.406 77.8044 219.967L77.7879 219.95ZM159.856 219.187H162.136C162.268 217.528 161.508 216.765 159.856 216.898V219.187ZM53.4665 217.661C35.9856 220.05 24.5684 231.232 15.4644 241.319C8.67362 248.868 7.38487 248.868 9.38411 258.109C10.8111 264.834 12.5869 271.479 14.7044 278.018C21.8752 299.453 27.1625 321.668 35.2255 340.582C36.3491 343.236 37.8196 349.69 42.0659 348.977C44.1478 350.934 44.6269 347.318 45.1061 346.687C57.1346 330.528 73.4259 314.683 102.853 319.213C92.4435 286.861 83.2734 253.331 74.0207 219.934C68.3039 218.374 61.4635 216.615 53.5161 217.644L53.4665 217.661ZM159.096 224.529C158.914 223.086 159.939 222.87 159.856 221.477C157.262 220.912 156.882 224.397 159.096 224.529ZM164.416 226.819C164.185 224.496 164.532 221.609 162.136 221.477C162.351 223.799 162.004 226.686 164.416 226.819ZM158.286 229.092C160.286 229.324 160.781 228.047 160.566 226.039C158.567 225.823 158.072 227.101 158.286 229.092ZM159.806 235.96C160.616 235.247 160.038 233.156 162.087 233.671C161.954 232.526 162.351 230.85 161.326 230.618C160.137 231.796 156.766 235.147 159.806 235.96ZM159.806 239.776C162.169 240.025 163.854 236.259 161.326 235.96C161.442 237.852 160.12 238.333 159.806 239.776ZM161.326 244.355C163.821 244.355 164.234 242.182 164.367 239.776C161.938 239.876 161.062 241.435 161.326 244.355ZM159.806 251.224C162.433 252.717 164.367 247.906 165.127 245.118H162.847C162.665 247.989 159.972 248.354 159.806 251.224ZM160.566 258.092C162.599 259.751 168.117 252.916 164.367 251.224C162.946 253.364 160.979 254.94 160.566 258.092ZM162.087 264.198C164.862 263.601 168.844 258.092 165.887 256.566C164.664 259.154 162.351 260.647 162.087 264.198ZM1.73411 269.54C5.03864 269.54 3.88205 265.077 6.29436 264.198C7.43442 266.985 5.9474 268.428 9.33454 269.54C8.7893 265.26 7.97968 261.245 5.53433 258.856C4.3447 262.489 3.10549 266.073 1.73411 269.54ZM165.127 265.724C167.341 266.122 169.158 262.224 167.407 261.145C167.093 263.136 165.143 263.451 165.127 265.724ZM164.367 274.119C165.143 271.896 170.976 269.142 167.407 267.25C167.142 269.805 162.219 271.664 164.367 274.119ZM163.607 270.303C163.706 269.391 164.961 268.644 163.607 268.014C163.491 268.91 162.252 269.673 163.607 270.303ZM5.53433 281.751C8.7232 280.092 9.36759 275.927 10.8546 272.593C7.20312 273.754 7.00484 278.383 5.53433 281.751ZM163.607 280.224C166.085 280.888 169.439 276.624 169.687 272.593H167.407C166.746 275.745 164.251 277.072 163.607 280.224ZM7.05441 287.856C9.48324 286.048 14.4896 279.246 10.8546 276.409C9.56586 280.191 7.55009 283.277 7.05441 287.856ZM169.687 280.224C169.687 279.76 169.803 279.312 170.447 279.461C170.447 278.532 170.216 277.653 168.927 277.935C169.043 278.831 168.795 280.092 169.687 280.224ZM10.8546 290.909C10.4911 287.923 16.3567 284.123 12.3747 282.514C12.3747 285.301 8.31014 288.039 10.8546 290.909ZM166.647 288.619C169.538 287.956 170.761 285.616 171.19 282.514C167.886 282.763 168.316 286.728 166.647 288.619ZM174.247 299.304C174.726 294.907 175.239 287.309 172.727 282.514C172.909 288.802 172.281 296.915 174.247 299.304ZM11.6147 297.014C12.6225 294.725 17.9428 289.432 13.8948 287.06C13.6469 290.378 9.36757 293.696 11.6147 297.014ZM13.8948 300.814C14.0104 298.557 19.529 294.741 15.4149 293.198C15.4149 295.803 11.8129 298.673 13.8948 300.814ZM168.2 305.393C168.745 302.871 172.711 299.802 170.48 297.097C170.017 299.835 165.028 303.916 168.2 305.393ZM14.6879 309.209C16.1419 305.575 19.2977 303.667 19.2481 298.541H16.968C16.6045 301.992 12.6556 305.874 14.6879 309.209ZM168.2 309.209C170.645 308.114 171.504 305.476 172.76 303.103C169.869 303.767 168.646 306.106 168.2 309.209ZM17.7446 313.058C18.075 310.801 23.2466 306.289 19.2647 304.663C18.802 307.035 15.2496 310.254 17.7446 313.058ZM168.976 313.821C172.545 312.576 174.33 309.54 175.057 305.426C171.141 306.338 170.315 310.403 168.976 313.821ZM143.135 310.768H145.415V308.479H143.135V310.751V310.768ZM132.494 312.294C134.874 312.659 134.642 310.386 135.535 309.242C133.155 308.893 132.23 309.905 132.494 312.294ZM153.016 310.021C152.916 308.362 149.794 309.69 148.455 309.242C148.075 311.05 153.743 312.676 153.016 310.021ZM19.2647 318.317C22.5692 318.002 24.4528 311.88 21.5448 310.021C20.527 312.709 19.7636 315.486 19.2647 318.317ZM21.5448 332.817C22.5857 329.034 19.3803 324.737 20.0247 320.606C16.2741 324.572 19.3968 315.181 16.2245 316.027C15.9436 320.772 19.2647 328.155 21.5448 332.817ZM22.3048 325.185C25.6093 324.82 26.5346 317.803 23.8249 316.027C23.3127 319.08 21.9083 321.22 22.3048 325.185ZM106.653 326.712C109.115 323.842 110.718 320.075 112.733 316.757C108.884 317.736 106.124 323.858 106.653 326.712ZM92.1957 323.709C92.5096 322.514 94.5749 323.062 93.6992 320.656C91.7826 319.86 90.3947 323.228 92.1957 323.709ZM95.2193 323.709C97.4499 323.908 98.1438 320.756 95.9793 320.656C95.748 321.701 94.9054 322.116 95.2193 323.709ZM24.5519 332.104C25.0971 330.063 30.2522 325.55 26.072 323.709C25.6259 326.081 23.0979 330.345 24.5519 332.104ZM67.8743 329.051C66.6186 332.635 61.8105 336.683 63.3141 340.499C65.1976 337.546 68.9483 332.452 67.8743 329.051ZM82.3151 328.288C82.8769 330.644 80.2167 329.764 80.795 332.104C84.6448 330.893 88.6268 329.814 91.4191 327.525C87.1067 326.828 86.4623 329.068 82.3151 328.288ZM75.5078 331.307C75.9139 331.334 76.3212 331.274 76.7021 331.13C77.0831 330.986 77.4291 330.762 77.7169 330.473C78.0048 330.184 78.2278 329.837 78.3711 329.454C78.5144 329.071 78.5747 328.663 78.548 328.255H76.2678C76.4331 329.698 75.4086 329.914 75.5078 331.307ZM24.585 339.702C27.6086 338.707 31.888 331.042 27.6251 329.748C26.8639 333.138 25.8476 336.466 24.585 339.702ZM77.7879 334.36C77.887 333.464 79.1262 332.701 77.7879 332.071C77.6722 332.983 76.433 333.73 77.7879 334.36ZM56.5067 345.078C59.5799 343.833 62.5045 338.441 61.067 335.123C58.8811 338.091 57.3286 341.48 56.5067 345.078ZM27.6251 344.315C30.9296 344.066 30.5166 340.084 32.1854 338.209C30.7479 338.209 31.6567 335.687 29.9052 335.92C28.7279 338.586 27.9591 341.417 27.6251 344.315ZM26.105 344.315C26.7825 344.198 26.5016 340.101 25.345 342.788C25.1467 343.253 25.6589 344.447 26.105 344.315ZM30.6653 350.42C33.6559 349.856 34.2837 346.936 34.4655 343.551C33.4907 343.551 33.408 342.573 32.1854 342.788C32.681 346.355 30.9957 347.765 30.6653 350.42ZM26.8651 347.367C27.4599 349.325 27.6251 351.697 29.1452 352.709C28.4182 350.138 31.4749 347.5 29.1452 345.841C29.0166 346.331 28.7137 346.757 28.2935 347.039C27.8734 347.32 27.3653 347.437 26.8651 347.367ZM33.7055 357.322C35.0934 354.899 37.2413 353.224 36.7456 348.927H34.4655C34.8951 351.946 31.541 355.099 33.7055 357.322ZM46.6262 355.795C46.1801 356.26 44.8417 359.412 46.6262 359.611C46.1635 358.251 48.8567 356.442 46.6262 355.795ZM47.3862 360.374C50.5751 361.204 48.7576 358.068 49.6663 356.559C51.3186 353.788 56.2754 351.581 54.9866 348.927C50.3438 350.586 48.6915 355.331 47.3862 360.374ZM39.0258 366.48C41.1902 361.785 43.0738 356.807 45.1061 351.98C40.1493 353.39 38.4144 362.05 39.0258 366.48ZM31.4253 357.322C31.541 355.43 31.574 353.622 29.9052 353.506C29.1122 354.219 29.2113 357.438 31.4253 357.322ZM35.9856 362.664C38.9431 361.569 39.4223 357.969 39.7858 354.269H37.5057C36.4907 356.95 35.9754 359.796 35.9856 362.664ZM34.4655 363.427C33.9202 361.088 35.2421 360.64 35.2255 358.848C32.2845 358.234 30.6157 363.693 34.4655 363.394V363.427Z" fill="white" fill-opacity="0.22"/>
<path fill-rule="evenodd" clip-rule="evenodd" d="M675.927 422.261C677.13 426.973 679.77 427.976 676.857 434.254C696.003 440.972 705.823 467.637 690.41 483.436C683.572 490.387 672.33 493.492 660.035 492.407C652.335 506.859 640.888 515.555 628.579 523.111C627.348 528.606 626.624 534.981 624.476 539.143C630.453 543.114 637.414 546.438 633.448 557.003C644.047 562.965 641.175 577.17 626.924 576.758C622.822 576.648 616.626 574.354 609.993 573.296C594.539 570.837 574.175 569.257 566.913 566.18C554.782 561.014 553.907 543.869 573.601 545.573C575.406 537.714 582.367 537.687 588.166 535.956C590.094 531.271 592.556 522.41 591.941 517.314C589.082 509.826 580.999 505.444 578.264 497.655C575.857 490.58 577.102 483.23 576.254 474.451C555.37 471.195 546.33 452.567 551.363 435.614C556.013 419.98 572 417.397 585.171 413.839C584.938 409.718 586.839 405.033 589.889 403C614.616 408.633 646.4 417.851 675.858 422.233L675.927 422.261ZM625.106 416.078C624.654 415.982 624.052 416.546 624.941 416.889C636.58 419.637 651.049 424.308 662.852 424.637C651.446 421.436 636.252 417.123 625.106 416.078ZM671.03 425.489C668.76 427.591 666.066 423.483 671.03 425.489V425.489ZM589.561 413.029C588.48 415.392 589.78 416.147 589.383 418.057C583.024 427.096 584.487 438.197 582.983 449.654C578.743 481.883 584.884 514.126 615.669 520.473C616.298 518.619 619.58 520.776 619.539 517.891C617.078 517.382 613.043 519.938 611.333 517.053C615.942 515.322 622.343 514.978 627.964 513.701C633.079 512.547 640.505 512.038 641.066 507.106C632.217 508.48 623.287 515.349 613.932 512.519C617.666 510.417 623.697 511.818 625.885 507.367C624.062 507.166 623.419 506.19 623.957 504.441C626.61 504.235 629.755 504.757 630.426 501.556C630.207 499.825 625.516 501.075 626.897 498.3C630.713 498.438 634.31 498.3 635.294 494.11C632.764 493.231 628.114 493.753 628.374 491.005C630.795 489.384 636.088 492.118 637.264 488.601C637.961 486.733 633.489 488.299 635.322 485.675C637.92 486.431 639.425 485.51 640.013 483.257C640.136 481.306 636.662 481.76 636.484 480.001C638.317 478.902 641.64 480.07 642.132 476.938C641.216 476.622 639.821 476.608 639.89 475.633C640.491 473.38 643.992 475.413 643.992 472.253C643.719 471.03 640.902 471.498 641.079 469.973C642.201 468.132 645.77 469.973 645.948 466.744C645.182 464.917 640.259 465.837 640.792 463.159C641.873 461.263 646.906 465.37 646.933 461.881C649.34 461.345 645.729 459.023 645.169 458.144C646.536 457.43 648.902 458.144 649.053 455.561C648.848 454.064 645.21 454.847 645.346 453.116C646.345 451.468 649.34 452.841 650.037 450.698C649.326 449.324 647.302 448.816 646.495 447.442C650.256 446.824 649.627 443.225 647.863 440.972C648.998 440.972 649.641 440.134 651.255 440.821C651.501 436.699 651.473 436.356 653.539 433.691C652.622 432.66 650.694 432.317 650.803 430.6C655.959 429.61 663.796 432.66 666.476 427.852C642.556 428.099 615.177 412.603 589.684 412.987L589.561 413.029ZM661.334 431.932C659.515 437.702 668.733 435.641 669.54 432.77C666.08 431.396 664.493 432.866 661.334 431.932ZM676.788 442.689C676.638 440.917 679.236 437.331 676.159 437.496C674.668 438.471 673.602 442.758 676.788 442.689ZM659.693 440.038C662.428 442.03 668.364 440.821 670.183 437.963C667.912 436.727 660.609 435.696 659.693 440.038ZM559.487 428.814C562.564 428.168 567.692 425.036 566.762 421.945C564.424 424.376 561.524 425.984 559.487 428.814ZM659.2 442.469C658.982 443.554 658.749 444.626 658.544 445.711C660.486 446.453 667.393 446.755 668.391 442.662C665.574 442.964 661.717 441.7 659.2 442.469ZM575.994 463.42C578.127 453.995 578.168 440.065 581.601 427.44C581.601 426.492 580.958 426.066 580.316 425.489C567.132 429.322 557.066 458.35 575.994 463.42ZM663.905 481.403C681.561 483.862 686.129 452.168 673.875 444.626C671.14 457.114 665.874 471.264 663.905 481.403ZM683.845 453.418C684.515 451.948 686.457 452.429 686.293 449.695C683.763 448.844 680.987 452.196 683.845 453.418ZM657.395 451.371C661.936 452.278 665.163 451.179 667.242 448.335C667.242 447.387 666.613 446.893 665.957 446.384C663.768 449.05 657.258 445.176 657.395 451.371ZM688.194 456.867C689.927 457.379 690.898 456.734 691.107 454.93C689.056 453.927 689.22 456.303 688.194 456.867ZM560.8 434.982C563.795 436.356 567.132 432.688 565.819 430.943C564.451 432.743 561.606 432.317 560.8 434.982ZM656.438 456.235C659.789 455.671 664.11 456.578 665.492 453.02C662.1 453.528 657.436 452.1 656.438 456.235ZM684.173 464.477C685.607 464.391 686.994 463.928 688.194 463.135C689.394 462.342 690.365 461.246 691.012 459.958C687.524 459.6 685.678 461.744 684.173 464.477ZM555.138 438.045C555.562 438.163 556.007 438.188 556.442 438.118C556.877 438.048 557.292 437.885 557.659 437.641C558.026 437.396 558.336 437.075 558.569 436.699C558.802 436.323 558.951 435.902 559.008 435.463C558.583 435.345 558.139 435.32 557.704 435.39C557.269 435.46 556.854 435.623 556.487 435.868C556.12 436.113 555.809 436.434 555.577 436.809C555.344 437.185 555.194 437.607 555.138 438.045ZM656.123 457.828C655.85 459.202 655.563 460.576 655.303 461.95C659.515 461.647 664.876 462.966 665.478 457.279C660.896 457.581 660.418 457.526 656.123 457.897V457.828ZM559.815 439.818C559.911 438.719 563.576 438.046 561.265 436.74C561.169 437.839 557.504 438.513 559.815 439.818ZM557.845 445.313C560.129 446.206 562.878 442.469 561.251 440.944C560.759 443.362 558.598 443.266 557.845 445.313ZM655.111 466.895C656.479 468.873 658.941 466.483 661.088 466.428C661.197 465.192 661.977 463.502 660.937 463.021C660.035 465.879 654.646 461.95 655.111 466.895ZM683.654 475.262C686.252 475.605 689.931 472.143 688.837 470.412C687.579 472.734 684.406 472.157 683.654 475.262ZM558.803 448.885C560.841 445.313 563.029 448.624 558.803 448.885V448.885ZM654.127 471.759C656.588 472.665 657.628 471.415 658.653 470.151C656.383 469.519 654.277 469.148 654.127 471.759ZM653.306 475.88C656.424 474.946 661.895 477.597 662.36 472.665C659.624 474.039 654.031 471.291 653.306 475.88ZM558.297 455.603C562.81 457.65 554.604 458.831 558.297 455.603V455.603ZM650.708 480.413C649.477 482.859 652.458 482.515 652.472 484.136C650.571 484.425 648.916 485.112 648.369 487.53C652.841 489.384 653.374 485.249 657.737 486.911L658.394 483.683C656.506 482.378 654.044 485.359 653.552 482.68C656.848 482.035 660.828 482.419 661.32 477.528C657.217 477.528 653.046 477.693 650.653 480.413H650.708ZM562.988 461.592C563.316 460.329 565.176 461.373 565.094 459.477C563.576 458.433 560.991 460.851 562.988 461.592ZM565.408 462.087C564.615 464.477 567.692 464.299 568.951 465.343C570.523 462.238 567.282 460.823 565.408 462.087ZM644.909 484.246C646.988 484.933 647.33 482.982 647.986 481.499L645.565 481.004C645.196 483.243 643.897 482.378 644.909 484.246ZM574.107 468.929L575.72 469.258L576.049 467.623L574.435 467.307L574.107 468.929ZM644.225 495.924C649.696 496.24 658.339 494.344 655.07 488.01C651.214 489.769 643.432 490.566 644.225 495.924ZM639.862 496.72C640.204 496.267 642.502 493.973 640.519 493.478C640.19 493.932 637.879 496.226 639.862 496.72ZM640.82 500.292C644.608 502.229 646.29 497.545 648.41 500.155C645.223 504.139 637.469 501.254 635.308 506.763C638.878 507.491 641.613 502.806 644.676 506.145C646.591 502.669 650.393 502.106 651.514 497.407C647.411 497.503 642.529 496.473 640.847 500.292H640.82ZM634.515 502.38C636.594 503.054 636.935 501.103 637.592 499.633C635.417 499.234 633.339 500.691 634.515 502.38ZM618.103 542.042C624.121 542.042 622.739 530.722 624.941 524.883C624.941 524.21 624.463 523.798 623.492 523.743C618.308 526.491 618.404 535.777 618.103 542.042ZM592.624 535.173C594.99 537.33 599.189 538.278 602.622 539.748C605.617 536.176 606.943 530.131 608.325 524.045C605.001 522.039 599.722 521.298 595.743 519.773L592.624 535.173ZM609.884 541.231C610.773 538.305 608.516 537.44 606.656 536.354C605.425 539.514 606.492 541.135 609.884 541.231ZM625.516 546.96C626.172 545.847 627.116 545.16 627.786 544.048C627.283 543.529 626.681 543.117 626.016 542.836C625.351 542.555 624.637 542.411 623.916 542.413C623.013 544.886 624.244 545.93 625.516 546.96ZM583.229 544.213C586.976 543.883 589.137 541.149 591.804 539.212C588.453 540.132 584.966 540.792 583.229 544.213ZM584.829 548.746C588.344 545.998 592.665 544.405 595.674 540.847C595.674 540.174 595.182 539.761 594.224 539.706C592.57 544.281 583.625 543.361 584.829 548.746ZM592.898 550.395C595.498 550.155 598.02 549.373 600.302 548.098C602.585 546.823 604.576 545.083 606.15 542.99C600.937 543.617 596.178 546.276 592.898 550.395ZM625.352 547.757L625.023 549.378C626.747 551.04 627.95 547.111 626.323 547.111C626.172 547.606 626.008 548.045 625.352 547.757ZM613.877 550.505C614.342 552.071 612.975 554.846 615.477 555.052C617.857 552.304 618.213 550.93 620.51 546.809C617.269 546.479 616.134 549.351 613.877 550.518V550.505ZM601.432 553.857C604.865 554.475 606.697 552.675 608.065 550.161C609.432 549.749 614.712 546.369 611.47 545.792C607.955 548.21 603.47 549.186 601.432 553.857ZM588.056 549.433C591.052 549.433 595.619 546.136 595.018 544.116C592.843 546.122 589.451 546.26 588.056 549.433ZM627.266 559.104C631.711 560.19 631.78 553.815 630.521 551.329C630.261 555.175 627.786 555.615 627.266 559.104ZM608.639 555.368C608.981 553.76 611.046 554.791 610.91 552.469L608.489 551.975C608.379 553.211 607.6 554.901 608.639 555.368ZM619.129 557.511L621.55 558.005L622.042 555.588L619.621 555.093L619.129 557.511ZM620.497 571.249C616.79 569.463 613.207 566.866 609.692 570.727L625.817 574.024C625.817 571.922 626.842 569.147 624.449 568.666C623.458 569.923 622.092 570.829 620.551 571.249H620.497ZM632.956 563.679C631.848 566.578 628.374 565.891 628.251 570.301C632.08 570.109 633.188 565.781 635.541 563.363C635.291 562.345 634.772 561.414 634.037 560.669C633.303 559.923 632.38 559.392 631.369 559.132C629.865 564.284 624.955 564.243 622.781 568.336C627.376 569.312 630.412 562.305 632.956 563.679ZM562.947 552.689C565.784 552.509 568.443 551.24 570.373 549.144C568.609 547.771 563.384 548.677 562.947 552.689ZM563.562 557.882C568.458 555.766 574.503 555.313 576.992 549.639C571.399 550.697 566.53 552.826 563.562 557.882ZM568.404 558.871C574.189 558.459 579.509 557.36 582.312 552.428C576.035 552.098 572.657 556.123 568.404 558.871ZM574.038 564.243C577.403 566.001 586.169 568.707 584.378 562.979C581.15 565.52 577.293 559.173 574.038 564.243ZM588.768 553.747C583.065 554.626 578.825 557.744 574.695 561C580.726 561.165 587.687 557.607 588.768 553.747ZM583.899 561.193C586.167 561.471 588.467 561.14 590.567 560.235C592.666 559.33 594.49 557.883 595.852 556.041C591.571 553.293 587.332 559.132 583.899 561.193ZM588.084 565.424C593.691 563.35 600.392 562.896 603.278 556.728C596.563 557.113 591.448 559.929 588.084 565.424ZM599.845 569.545C604.509 571.331 605.466 567.485 606.164 563.24C608.899 562.429 611.716 561.783 613.002 558.734C604.536 557.167 600.092 561.715 596.18 567.1C599.982 567.553 601.459 564.531 605.07 564.696C603.347 566.317 600.174 565.74 599.886 569.545H599.845ZM606.793 568.433C613.043 568.433 617.091 564.984 620.223 560.19C613.207 559.077 610.171 563.982 606.793 568.433ZM617.132 567.169C618.623 569.504 624.093 564.82 622.316 562.319C620.77 564.229 618.295 564.71 617.132 567.169ZM567.747 562.141C568.787 562.608 569.115 563.611 570.811 563.611L571.467 560.368C569.484 559.819 568.732 561.097 567.747 562.141ZM590.176 567.636L592.583 568.13L593.076 565.699L591.475 565.369C591.243 566.358 590.231 566.207 590.204 567.567L590.176 567.636Z" fill="white" fill-opacity="0.22"/>
<path fill-rule="evenodd" clip-rule="evenodd" d="M946.543 573.233C950.254 574.642 953.965 575.877 957.698 579.81C957.904 581.977 954.855 581.425 955.061 583.386C959.637 588.465 963.562 594.092 966.747 600.138C969.927 601.6 972.911 599.357 976.513 600.062C990.12 602.716 1002 621.169 1001.64 631.842C1021.75 651.519 998.389 671.522 1006.54 691.297C1009.57 692.488 1012.15 696.248 1011.49 698.805C1010.61 699.705 1009.73 700.604 1008.84 701.493C1002.39 698.242 1001.33 690.776 1001.17 686.009C1000.99 680.959 1002.15 675.173 1003.26 669.561C1005.43 658.866 1010.86 647.705 1001.69 637.162C999.213 639.069 1000.55 644.747 995.535 646.979C992.866 646.611 990.185 645.246 987.516 644.379C981.157 637.422 990.771 625.959 998.519 630.531C998.638 619.327 981.092 600.116 969.427 604.526C969.069 608.968 971.413 613.389 966.867 617.854C963.08 619.056 958.772 613.942 958.349 610.377C959.108 607.712 961.604 605.024 964.523 602.337C960.893 596.095 956.521 590.314 951.502 585.12C948.387 584.968 945.306 589.378 942.191 589.183C938.578 588.414 940.434 584.318 938.578 582.107C920.739 586.907 896.389 572.54 879.69 554.141C871.671 545.31 865.301 528.851 867.406 518.265C868.491 512.533 871.844 505.262 876.608 500.928C881.372 496.594 888.794 491.068 896.986 490.092C901.066 489.616 904.159 491.176 908.987 490.45C914.89 494.188 920.435 495.488 925.958 500.083C936.191 508.599 945.718 521.504 948.876 531.441C951.523 539.784 949.863 547.845 951.719 555.398C949.331 561.336 950.384 567.241 946.521 573.19L946.543 573.233ZM875.349 508.502C875.935 507.917 876.532 508.859 877.129 508.502C876.38 507.169 879.104 505.825 876.651 504.504C875.284 505.847 874.807 507.18 875.349 508.513V508.502ZM886.841 499.53C888.436 498.338 888.088 497.157 887.709 495.976C886.971 496.919 886.222 496.464 885.538 497.33C885.994 498.056 885.755 498.804 886.884 499.498L886.841 499.53ZM882.023 508.036C883.618 507.375 883.596 504.558 882.023 505.381C882.826 506.259 880.872 507.169 882.023 508.036ZM877.682 516.065C880.189 514.125 879.136 512.208 878.974 510.29C875.512 517.409 871.747 524.549 874.687 531.636C877.802 526.424 877.14 521.255 877.682 516.065ZM882.088 511.59C879.06 520.193 874.633 528.818 877.845 537.378C880.015 531.441 879.44 525.524 882.185 519.576C883.216 518.275 884.269 520.941 885.289 519.121C886.927 511.85 891.322 504.569 890.91 497.32C888.295 501.34 888.002 505.338 887.003 509.336C885.376 510.42 883.748 509.206 882.12 511.59H882.088ZM874.112 514.32C872.512 516.989 871.905 520.135 872.398 523.206C874.025 520.237 874.872 517.268 874.112 514.32ZM892.711 504.374C894.881 501.99 895.597 499.617 894.436 497.255C891.745 499.649 891.246 502.022 892.711 504.374ZM901.565 499.866C899.699 500.278 902.086 496.94 900.198 495.879C897.865 498.457 899.113 499.768 895.793 500.354C894.002 508.957 889.282 517.571 887.98 526.164L889.77 527.93C887.969 535.049 886.417 542.157 887.264 549.265C890.519 542.428 889.217 535.623 892.45 528.797C893.351 531.061 894.219 527.54 895.109 528.797C893.546 533.716 891.257 538.614 890.335 543.49C889.727 546.74 889.065 551.313 891.311 554.141C896.042 546.112 892.136 535.786 897.344 529.219C896.899 530.996 896.031 532.784 896.498 534.55C898.115 534.139 896.997 531.733 898.256 532.763C896.563 540.022 896.01 547.282 894.415 554.542C893.829 554.098 893.221 553.22 892.635 553.675C893.237 555.071 894.363 556.176 895.771 556.752C900.111 543.11 900.111 529.49 906.134 515.827C906.882 516.834 907.62 516.098 908.304 516.26C906.904 524.658 899.623 533.77 902.715 541.604C904.321 538.159 903.041 536.685 906.231 536.252C906.079 534.355 905.624 535.872 904.452 535.385C907.707 529.479 908.011 516.379 912.308 515.783C912.308 512.825 916.312 509.835 914.011 506.887C912.34 507.429 913.501 510.041 911.841 509.13C911.396 508.686 910.951 508.968 910.507 508.697C909.324 507.364 912.047 506.021 910.029 504.699C908.13 505.609 909.66 506.486 909.161 507.375C908.434 504.861 906.991 506.725 905.146 506.064C905.526 507.256 904.755 508.437 903.399 509.64C900.99 508.859 902.162 508.253 901.153 506.541C898.169 507.342 898.353 511.07 897.181 511.46C893.514 507.364 898.147 500.115 901.522 499.877L901.565 499.866ZM890.986 511.492C890.595 510.311 891.864 509.119 890.986 507.938C890.02 508.881 889 512.045 890.986 511.492ZM904.647 501.177L903.301 499.855C902.857 500.451 901.978 501.058 902.423 501.643C903.16 500.971 903.92 502.412 904.593 501.177H904.647ZM909.063 497.591C909.063 496.431 907.978 495.358 906.839 496.279C906.839 497.45 907.924 498.512 909.063 497.591ZM880.504 541.756C883.856 536.143 882.999 530.043 884.366 524.419C884.649 523.281 886.83 522.772 884.79 521.309C882.251 528.136 878.539 534.973 880.449 541.756H880.504ZM884.095 546.177C885.061 543.186 888.75 533.727 884.442 534.182C884.54 538.18 881.513 542.2 884.095 546.177ZM909.834 540.662C909.15 542.135 907.664 543.63 908.977 545.104C911.342 542.937 909.682 540.174 909.378 539.329C911.299 528.948 917.853 518.546 917.147 508.188C913.99 513.324 913.002 519.164 911.494 524.658C909.986 530.151 907.273 535.829 908.065 541.561C908.651 541.095 909.237 540.217 909.834 540.662ZM880.113 550.208C880.591 550.696 881.224 551.002 881.903 551.074C883.195 549.991 882.728 548.994 881.437 547.965C880.73 548.52 880.257 549.321 880.113 550.208ZM916.583 544.595C917.462 533.348 924.732 522.046 922.562 510.81C917.137 512.977 916.985 520.854 915.563 525.979C913.957 531.722 911.071 537.649 912.134 542.883C916.789 535.146 916.561 525.091 921.726 518.828C916.637 529.978 915.791 541.073 909.085 552.223C909.801 555.766 906.503 559.353 908.271 562.885C912.612 556.936 910.854 549.157 916.583 544.617V544.595ZM906.817 558.876C904.994 561.119 903.898 563.34 905.537 565.551C907.436 564.857 906.774 560.967 906.817 558.876ZM926.468 511.2C923.029 516.119 923.267 520.952 922.573 525.882C924.114 523.791 923.853 519.381 926.078 518.752C921.868 534.767 914.565 550.814 912.21 566.808C910.865 563.405 914.619 557.63 911.689 555.712C911.689 560.046 907.62 564.38 909.519 568.606C910.864 568.933 912.282 568.764 913.512 568.13C919.6 554.91 921.39 539.361 926.099 527.637C926.468 529.566 923.05 533.857 925.709 534.301C926.023 531.766 927.228 526.9 928.758 525.839C926.262 532.578 924.786 540.748 922.703 548.084C921.477 552.353 919.361 556.904 918.797 560.989C918.558 562.701 918.113 565.897 919.73 567.198C924.83 552.656 925.155 538.148 930.961 523.607C931.08 521.905 929.962 521.851 930.049 520.941C930.722 518.275 932.491 515.599 930.049 512.955C927.879 514.039 929.713 517.344 927.879 516.964C925.709 515.642 929.083 513.605 926.501 511.2H926.468ZM918.873 560.1C916.041 558.627 917.267 564.055 915.357 565.453C915.357 567.826 912.72 570.21 915.357 572.561C919.524 570.08 916.865 564.023 918.818 560.1H918.873ZM885.484 554.629C884.822 553.892 886.255 553.133 885.028 552.407C883.715 552.938 884.204 555.56 885.484 554.629ZM889.966 559.028C891.984 557.825 888.815 556.676 888.153 555.485C887.719 555.94 887.275 556.384 886.83 556.828C888.577 558.995 889.152 556.395 889.966 558.995V559.028ZM897.051 556.308L896.172 557.207L897.073 558.085L897.952 557.197L897.051 556.308ZM903.67 548.723C901.196 550.533 902.585 554.629 900.166 554.964C901.358 551.698 901.785 548.203 901.413 544.747C899.406 549.493 897.865 554.249 898.853 558.974C899.938 558.443 899.373 555.82 901.023 556.741C900.604 558.005 900.012 559.204 899.265 560.306L901.511 562.473C903.464 562.473 902.184 560.209 903.258 558.909C903.92 559.429 902.813 562.051 904.604 561.076C905.298 557.218 907.598 553.361 907.186 549.514C902.499 550.013 905.439 556.601 903.247 557.099C902.791 554.293 904.712 551.465 903.627 548.658L903.67 548.723ZM892.711 562.538C893.872 561.195 893.796 559.862 892.244 558.54C890.345 559.949 890.714 562.506 892.711 562.538ZM907.729 549.102C908.608 547.911 909.172 546.729 908.597 545.548C907.512 546.74 906.427 547.932 907.729 549.102ZM895.847 564.738L897.171 563.394C896.27 562.712 895.369 560.74 894.49 562.528C894.957 563.264 894.718 564.001 895.847 564.695V564.738ZM929.962 548.94C933.63 543.414 934.227 534.128 936.473 527.139C935.724 526.131 934.997 526.868 934.303 526.705C935.127 525.373 936.191 524.029 934.715 522.707C931.167 529.696 930.375 536.652 929.094 543.62C931.113 540.932 930.114 535.926 932.588 534.713C932.078 539.459 928.389 544.216 930.028 548.94H929.962ZM939.989 522.675C941.291 521.591 940.824 520.594 939.522 519.565C938.22 520.648 938.697 521.645 939.989 522.675ZM902.043 568.238C901.565 566.948 901.348 564.684 899.341 564.706L898.017 566.049C899.363 567.219 900.708 569.451 902.043 568.216V568.238ZM928.27 567.599C929.669 564.272 929.593 559.299 933.077 557.348C931.069 556.037 932.719 554.694 932.599 553.361C934.693 549.633 935.507 545.386 936.516 541.344C937.471 537.53 939.772 532.871 938.198 528.894C935.152 536.611 933.12 544.689 932.154 552.927C927.738 556.59 928.595 562.246 926.935 567.165C925.503 565.67 928.649 561.856 926.002 561.845C925.394 566.591 921.661 571.348 923.441 576.072C927.521 574.902 923.886 567.501 928.27 567.599ZM927.901 577.816C930.863 577.242 929.04 573.937 932.317 574.23C936.364 563.167 938.111 551.291 940.52 540.867C941.388 537.075 943.135 533.185 942.202 529.317C936.712 541.788 935.388 554.238 931.818 566.688C930.874 565.215 932.545 563.719 930.896 562.246C929.496 567.447 925.741 572.648 927.901 577.816ZM931.33 561.802C931.83 561.412 932.278 560.961 932.664 560.458C933.218 558.291 929.691 561.812 931.33 561.802ZM904.734 570.882C906.568 569.69 904.734 567.458 903.377 568.715C903.844 569.451 903.605 570.199 904.734 570.882ZM941.443 546.188C943.309 542.861 945.002 536.436 943.135 534.637C942.647 538.484 940.293 542.352 941.443 546.188ZM910.973 573.504C909.78 572.865 908.575 569.722 907.403 571.749C907.403 573.428 909.671 574.1 910.973 573.504ZM923.799 564.966C924.049 562.3 928.139 559.613 925.513 556.958C924.137 559.39 923.539 562.184 923.799 564.966ZM915.444 576.126C914.359 574.978 913.35 573.959 912.319 574.826C913.36 575.989 914.402 576.422 915.444 576.126ZM920.316 574.761C921.282 572.095 922.291 569.419 921.141 566.764C920.359 569.43 918.005 572.117 920.316 574.761ZM941.128 563.514C937.374 559.84 942.213 556.102 940.607 552.407C938.357 556.683 937.027 561.381 936.701 566.201C937.786 565.67 937.222 563.059 938.871 563.969C937.124 567.826 936.603 571.684 935.399 575.541C936.885 576.495 938.372 577.535 939.837 575.541C938.339 571.846 940.054 568.14 940.206 564.435C942.246 563.99 943.526 560.469 942.376 558.648C940.097 560.285 942.018 561.899 941.074 563.546L941.128 563.514ZM946.054 567.469C947.845 564.922 948.854 560.057 947.324 559.017C946.857 561.834 945.392 564.662 946.054 567.469ZM945.631 570.578C945.024 569.993 944.438 569.408 943.841 568.812C942.3 570.188 944.199 572.648 945.631 570.578ZM965.955 612.609C966.493 611.824 966.78 610.895 966.78 609.944C966.78 608.992 966.493 608.063 965.955 607.278C964.87 609.055 963.904 610.843 965.955 612.609ZM990.63 642.168C994.146 642.537 997.955 638.734 998.573 634.995C994.634 629.664 984.586 637.487 990.63 642.168ZM921.314 529.913C922.92 528.721 922.562 527.54 922.171 526.348C920.576 527.551 920.934 528.732 921.314 529.913ZM920.446 532.578C918.851 537.357 921.119 530.574 920.446 532.578V532.578Z" fill="white" fill-opacity="0.22"/>
<path fill-rule="evenodd" clip-rule="evenodd" d="M440.459 581.02C440.738 584.121 439.365 587.382 438.47 590.213C432.502 607.988 428.524 628.494 423.74 648.949C422.437 654.531 420.975 659.682 420.696 666.834C412.391 664.284 406.125 659.702 398.815 656.111C396.099 657.982 394.896 661.233 393.235 664.274C391.703 667.074 390.768 670.666 388.152 672.456C383.676 668.815 383.03 661.453 381.041 655.081C380.464 653.231 379.3 651.46 378.504 649.459C377.709 647.459 377.51 645.378 376.465 643.848C372.755 638.326 365.524 637.216 359.199 634.655C356.931 633.735 354.912 632.025 352.604 631.074C350.297 630.124 347.512 630.254 346 628.013C358.373 616.85 376.127 613.009 391.703 605.007C399.491 601.006 407.279 597.375 415.067 593.774C423.829 589.773 432.333 586.632 439.445 581L440.459 581.02ZM385.606 654.041C387.426 652.14 387.655 648.619 391.186 648.429C392.24 646.529 390.46 647.089 390.679 644.848C391.146 641.567 393.265 637.236 392.668 634.635C389.515 637.636 391.047 647.979 386.571 647.909C387.128 646.739 388.431 643.688 387.078 642.297C386.521 646.499 383.458 648.199 383.01 652.51C385.248 652.71 384.343 649.76 386.063 649.439C385.845 650.55 383.169 653.621 385.556 654.041H385.606ZM415.564 595.814C409.765 598.585 403.539 601.036 397.79 603.987C381.13 612.529 363.476 617.63 350.048 627.993C359 632.275 369.742 634.745 376.455 641.277C397.271 625.125 416.646 607.178 434.362 587.642C434.362 587.332 434.283 587.032 433.855 587.132C427.818 589.502 422.019 592.733 415.564 595.814ZM392.2 649.96C399.222 654.651 407.846 657.732 415.564 661.703C419.771 637.696 428.375 618.051 433.348 594.794C433.875 594.794 433.746 594.134 432.841 594.284C419.99 613.539 404.076 629.714 392.2 649.96ZM422.168 603.476C424.158 601.546 428.544 599.335 428.265 596.835C425.971 598.79 423.923 601.02 422.168 603.476ZM413.028 616.75C412.948 615.14 414.38 615.05 414.022 613.179C412.252 612.979 411.277 616.5 413.028 616.75ZM408.462 620.331C408.462 620.021 408.532 619.721 408.97 619.821C408.91 619.201 408.811 618.611 407.975 618.821C408.055 619.421 407.895 620.271 408.492 620.351L408.462 620.331ZM402.873 622.882C404.205 623.032 404.544 622.182 404.394 620.881C403.032 620.881 401.958 622.052 402.873 622.882ZM405.916 624.933C407.06 626.183 410.541 622.282 407.905 621.352C407.319 622.632 405.916 623.062 405.916 624.933ZM394.747 628.504C396.835 627.481 398.727 626.096 400.336 624.412C397.89 625.193 396.447 626.983 394.747 628.504ZM399.312 634.125C402.475 633.695 403.37 626.223 402.365 624.933C400.456 627.093 399.381 630.084 399.312 634.125ZM397.79 633.125C397.84 631.864 400.515 628.784 398.297 628.534C398.765 630.394 396.089 631.714 397.79 633.125ZM391.693 645.388C395.105 644.248 394.965 639.057 395.761 635.175C396.219 632.955 397.909 630.274 396.268 629.554C393.513 633.555 393.095 639.977 391.693 645.388ZM381.538 647.389C382.413 643.388 386.511 640.307 385.606 636.156C386.879 635.986 390.151 633.255 388.142 633.085C384.542 636.086 380.613 641.527 381.538 647.389ZM396.268 638.706C397.81 638.526 397.79 634.145 397.263 633.595C396.425 635.158 396.078 636.941 396.268 638.706ZM386.62 641.267C389.107 640.857 390.32 636.486 389.664 634.625C387.605 635.786 386.68 638.116 386.62 641.267ZM379.509 644.328C379.797 644.018 380.692 641.907 379.509 641.777C379.211 642.087 378.315 644.198 379.509 644.328ZM382.552 650.46C382.97 647.969 385.964 645.378 384.542 642.798C383.358 644.508 381.419 648.139 382.552 650.46ZM391.693 655.051C391.842 654.741 392.956 653.051 391.693 653.051C392.18 654.001 390.181 654.761 391.693 655.051ZM384.581 659.652C385.497 658.032 384.581 653.861 382.592 653.521C381.956 655.081 382.98 658.752 384.581 659.652ZM391.186 662.203C392.18 659.202 395.045 658.252 394.747 654.031C390.42 654.231 390.539 659.682 391.186 662.233V662.203Z" fill="white" fill-opacity="0.22"/>
<path fill-rule="evenodd" clip-rule="evenodd" d="M126.33 506.015C128.878 505.737 127.537 509.309 128.612 510.568C138.83 517.035 147.417 525.1 157.406 531.844C163.855 532.28 169.314 530.161 175.583 530.331C180.74 530.464 186.344 532.413 191.501 531.844C198.144 531.118 204.026 526.674 210.439 525.79C217.492 525.026 224.607 525.026 231.66 525.79C233.604 526.008 236.104 526.032 236.962 528.066C236.805 532.728 228.133 528.841 225.597 531.106C226.515 534.242 233.435 531.36 233.181 535.671C231.213 538.262 225.234 536.882 221.104 537.185C222.022 543.094 233.737 538.202 233.181 545.54C229.184 548.458 221.877 543.796 216.502 543.263C218.495 547.211 228.858 546.412 227.106 551.619C215.029 551.788 203.374 545.068 195.282 538.71C186.513 538.516 179.448 540.042 170.281 539.461C172.696 544.644 178.493 547.937 183.168 550.868C187.842 553.798 193.458 556.414 198.325 559.223C198.917 562.42 200.1 566.489 199.074 569.092C190.354 570.993 184.11 575.353 176.344 578.21C175.136 586.687 175.281 596.374 174.073 604.851C161.428 613.424 144.132 617.311 132.441 626.817C127.32 626.732 125.194 629.65 121.837 631.37C117.09 630.51 116.679 631.2 113.503 632.896C91.5698 622.978 76.062 606.57 59.6966 591.107C61.0372 584.592 58.199 574.008 60.4575 566.791C54.1529 561.718 48.3798 556.123 40.7587 552.357C39.1282 549.269 40.4809 545.83 41.5075 543.239C49.0923 541.52 56.0008 537.439 62.7281 534.121C75.8084 527.691 88.5745 521.576 102.887 515.134C110.568 511.67 117.38 508.292 126.378 506.015H126.33ZM157.406 596.423C162.043 595.405 156.596 592.935 159.676 590.368C155.86 590.852 158.106 593.468 154.362 591.131C152.695 592.911 150.485 594.994 147.55 593.407C147.127 594.764 147.164 596.556 146.028 597.21C145.388 594.073 143.057 599.632 139.99 597.21C139.76 598.239 138.915 598.663 139.241 600.237C136.535 600.031 134.53 601.448 132.417 604.039C131.438 601.375 128.793 607.563 129.385 602.526C125.17 602.998 128.757 606.582 127.115 609.355C130.46 608.919 133.154 606.352 133.154 604.802C133.311 605.662 133.999 606.013 134.663 606.328C135.424 605.311 135.388 603.494 136.946 603.289V605.565C139.277 605.032 138.395 605.032 140.726 605.565C141.403 601.424 143.142 598.3 147.55 597.96C146.113 601.593 148.287 605.117 146.028 608.604C148.444 608.798 149.652 607.696 149.821 605.565C146.56 604.524 151.886 600.019 149.06 597.21C151.475 596.859 151.729 594.316 154.362 594.17C154.676 595.999 152.985 595.817 153.613 597.96C158.444 598.106 152.635 592.293 158.154 593.407C158.324 594.848 157.297 595.091 157.406 596.447V596.423ZM124.059 513.608C99.3599 525.317 71.412 533.77 49.7928 548.555C65.663 561.33 83.224 573.27 99.0459 585.028C104.65 589.181 111.232 591.773 115.725 597.137C133.62 586.936 152.108 577.818 171.09 569.831C177.588 567.058 185.184 565.968 190.028 560.713C185.97 557.08 180.438 553.447 174.882 549.318C170.244 545.891 163.638 539.134 158.964 538.686C149.193 537.742 144.47 548.567 134.712 550.795C134.108 554.585 137.369 554.513 135.472 557.625C128.975 564.176 111.039 555.13 122.586 547.756C124.904 547.538 125.532 550.178 127.139 548.507C134.506 542.73 143.335 538.42 152.901 534.835C144.796 526.25 134.506 519.856 124.107 513.559L124.059 513.608ZM207.395 529.568C211.25 529.774 215.108 529.257 218.773 528.042C214.956 526.722 211.079 527.594 207.395 529.568ZM168.747 534.884C170.619 535.005 171.887 534.484 172.527 533.37C171.102 533.697 167.962 532.341 168.747 534.884ZM208.905 535.647C214.087 536.179 221.14 537.015 224.812 534.121C220.56 533.14 211.128 532.208 208.905 535.647ZM192.238 535.647C191.69 535.27 191.071 535.008 190.419 534.877C189.768 534.745 189.096 534.748 188.445 534.884C187.238 537.184 192.371 536.882 192.238 535.647ZM223.302 541.701C218.048 540.381 214.594 537.257 207.383 537.899C210.367 540.999 218.857 542.585 223.302 541.701ZM127.888 556.898C129.892 556.898 132.344 557.322 132.429 555.372C131.837 555.203 131.547 554.743 131.668 553.859C129.458 553.859 127.404 554.125 127.888 556.898ZM179.411 572.083C180.006 572.128 180.601 572.011 181.135 571.745C181.668 571.478 182.12 571.072 182.443 570.569C180.716 570.352 179.592 570.751 179.411 572.083ZM64.9867 588.806C72.7889 596.459 80.6152 605.141 88.4779 611.595C96.3405 618.05 105.133 621.658 113.491 627.543C116.148 621.489 114.107 614.223 114.24 606.28C96.6424 596.592 83.0187 582.885 66.5084 572.083C64.3344 575.982 65.1195 582.848 64.9867 588.806ZM165.776 578.162C170.376 576.885 174.729 574.838 178.65 572.107C173.59 573.318 167.986 574.081 165.776 578.162ZM152.128 584.217C154.398 583.127 154.712 584.834 156.681 583.454V581.177C155.72 581.227 154.79 581.536 153.989 582.071C153.188 582.606 152.545 583.347 152.128 584.217ZM165.776 591.058C165.776 589.702 167.805 586.638 165.776 585.742C165.063 586.384 164.145 590.586 165.776 591.058ZM161.983 589.533C161.983 589.533 161.983 590.283 161.983 590.295C157.949 592.717 164.519 589.956 161.983 589.533ZM150.558 597.186C150.678 598.082 150.425 599.341 151.318 599.462C151.198 598.457 153.867 596.628 152.067 596.423C151.91 597.016 151.439 597.307 150.558 597.186ZM128.612 601.024C130.122 600.358 128.806 597.173 127.851 599.51C128.31 599.51 128.745 599.619 128.612 600.261C128.19 600.261 127.743 600.879 128.612 601.024ZM156.596 601.024C156.379 602.768 156.778 603.882 158.106 604.064C158.952 602.853 160.522 602.489 160.377 600.261C159.728 600.131 159.059 600.131 158.41 600.262C157.761 600.393 157.145 600.652 156.596 601.024ZM120.218 610.905C123.069 609.549 119.699 606.679 121.74 604.851C122.948 604.851 122.163 606.958 123.25 607.127V601.811C118.419 600.6 118.769 608.435 120.218 610.929V610.905ZM153.565 604.851C153.776 604.941 154.004 604.985 154.233 604.978C154.463 604.972 154.688 604.915 154.893 604.813C155.099 604.71 155.279 604.564 155.423 604.384C155.566 604.205 155.669 603.996 155.724 603.773C155.779 603.55 155.785 603.317 155.741 603.091C155.698 602.865 155.606 602.652 155.472 602.465C155.337 602.278 155.164 602.123 154.964 602.01C154.765 601.897 154.542 601.83 154.314 601.811C154.084 602.841 153.239 603.264 153.565 604.851ZM150.533 604.851H152.804V603.337H150.558V604.851H150.533ZM139.168 607.89C139.665 607.952 140.167 607.833 140.584 607.556C141 607.278 141.304 606.859 141.439 606.376C140.231 606.449 138.806 606.279 139.168 607.89ZM139.168 611.692C143.094 612.625 141.318 609.028 142.2 608.653C143.263 608.653 143.057 610.857 143.709 609.404C143.106 606.594 138.311 608.495 139.168 611.692ZM134.615 614.732C134.615 612.431 138.431 613.993 138.407 611.692C137.405 611.692 137.719 610.36 136.898 610.167C137.393 612.516 131.716 612.504 134.615 614.732ZM149.012 614.732C151.417 614.238 153.562 612.887 155.05 610.929C151.946 611.099 150.364 612.806 149.012 614.732ZM120.218 617.008C120.834 616.463 122.247 611.753 119.469 612.443C120.182 615.059 117.561 616.294 120.267 616.936L120.218 617.008Z" fill="white" fill-opacity="0.22"/>
<path fill-rule="evenodd" clip-rule="evenodd" d="M1396.46 561.02C1396.74 564.121 1395.37 567.382 1394.47 570.213C1388.5 587.988 1384.52 608.494 1379.74 628.949C1378.44 634.531 1376.97 639.682 1376.7 646.834C1368.39 644.284 1362.13 639.702 1354.81 636.111C1352.1 637.982 1350.9 641.233 1349.23 644.274C1347.7 647.074 1346.77 650.666 1344.15 652.456C1339.68 648.815 1339.03 641.453 1337.04 635.081C1336.46 633.231 1335.3 631.46 1334.5 629.459C1333.71 627.459 1333.51 625.378 1332.47 623.848C1328.76 618.326 1321.52 617.216 1315.2 614.655C1312.93 613.735 1310.91 612.025 1308.6 611.074C1306.3 610.124 1303.51 610.254 1302 608.013C1314.37 596.85 1332.13 593.009 1347.7 585.007C1355.49 581.006 1363.28 577.375 1371.07 573.774C1379.83 569.773 1388.33 566.632 1395.44 561L1396.46 561.02ZM1341.61 634.041C1343.43 632.14 1343.65 628.619 1347.19 628.429C1348.24 626.529 1346.46 627.089 1346.68 624.848C1347.15 621.567 1349.26 617.236 1348.67 614.635C1345.51 617.636 1347.05 627.979 1342.57 627.909C1343.13 626.739 1344.43 623.688 1343.08 622.297C1342.52 626.499 1339.46 628.199 1339.01 632.51C1341.25 632.71 1340.34 629.76 1342.06 629.439C1341.84 630.55 1339.17 633.621 1341.56 634.041H1341.61ZM1371.56 575.814C1365.77 578.585 1359.54 581.036 1353.79 583.987C1337.13 592.529 1319.48 597.63 1306.05 607.993C1315 612.275 1325.74 614.745 1332.46 621.277C1353.27 605.125 1372.65 587.178 1390.36 567.642C1390.36 567.332 1390.28 567.032 1389.86 567.132C1383.82 569.502 1378.02 572.733 1371.56 575.814ZM1348.2 629.96C1355.22 634.651 1363.85 637.732 1371.56 641.703C1375.77 617.696 1384.37 598.051 1389.35 574.794C1389.88 574.794 1389.75 574.134 1388.84 574.284C1375.99 593.539 1360.08 609.714 1348.2 629.96ZM1378.17 583.476C1380.16 581.546 1384.54 579.335 1384.27 576.835C1381.97 578.79 1379.92 581.02 1378.17 583.476ZM1369.03 596.75C1368.95 595.14 1370.38 595.05 1370.02 593.179C1368.25 592.979 1367.28 596.5 1369.03 596.75ZM1364.46 600.331C1364.46 600.021 1364.53 599.721 1364.97 599.821C1364.91 599.201 1364.81 598.611 1363.98 598.821C1364.05 599.421 1363.9 600.271 1364.49 600.351L1364.46 600.331ZM1358.87 602.882C1360.21 603.032 1360.54 602.182 1360.39 600.881C1359.03 600.881 1357.96 602.052 1358.87 602.882ZM1361.92 604.933C1363.06 606.183 1366.54 602.282 1363.91 601.352C1363.32 602.632 1361.92 603.062 1361.92 604.933ZM1350.75 608.504C1352.83 607.481 1354.73 606.096 1356.34 604.412C1353.89 605.193 1352.45 606.983 1350.75 608.504ZM1355.31 614.125C1358.47 613.695 1359.37 606.223 1358.37 604.933C1356.46 607.093 1355.38 610.084 1355.31 614.125ZM1353.79 613.125C1353.84 611.864 1356.52 608.784 1354.3 608.534C1354.76 610.394 1352.09 611.714 1353.79 613.125ZM1347.69 625.388C1351.1 624.248 1350.97 619.057 1351.76 615.175C1352.22 612.955 1353.91 610.274 1352.27 609.554C1349.51 613.555 1349.1 619.977 1347.69 625.388ZM1337.54 627.389C1338.41 623.388 1342.51 620.307 1341.61 616.156C1342.88 615.986 1346.15 613.255 1344.14 613.085C1340.54 616.086 1336.61 621.527 1337.54 627.389ZM1352.27 618.706C1353.81 618.526 1353.79 614.145 1353.26 613.595C1352.43 615.158 1352.08 616.941 1352.27 618.706ZM1342.62 621.267C1345.11 620.857 1346.32 616.486 1345.66 614.625C1343.61 615.786 1342.68 618.116 1342.62 621.267ZM1335.51 624.328C1335.8 624.018 1336.69 621.907 1335.51 621.777C1335.21 622.087 1334.32 624.198 1335.51 624.328ZM1338.55 630.46C1338.97 627.969 1341.96 625.378 1340.54 622.798C1339.36 624.508 1337.42 628.139 1338.55 630.46ZM1347.69 635.051C1347.84 634.741 1348.96 633.051 1347.69 633.051C1348.18 634.001 1346.18 634.761 1347.69 635.051ZM1340.58 639.652C1341.5 638.032 1340.58 633.861 1338.59 633.521C1337.96 635.081 1338.98 638.752 1340.58 639.652ZM1347.19 642.203C1348.18 639.202 1351.04 638.252 1350.75 634.031C1346.42 634.231 1346.54 639.682 1347.19 642.233V642.203Z" fill="white" fill-opacity="0.22"/>
<path fill-rule="evenodd" clip-rule="evenodd" d="M1458.33 159.015C1460.88 158.737 1459.54 162.309 1460.61 163.568C1470.83 170.035 1479.42 178.1 1489.41 184.844C1495.86 185.28 1501.31 183.161 1507.58 183.331C1512.74 183.464 1518.34 185.413 1523.5 184.844C1530.14 184.118 1536.03 179.674 1542.44 178.79C1549.49 178.026 1556.61 178.026 1563.66 178.79C1565.6 179.008 1568.1 179.032 1568.96 181.066C1568.8 185.728 1560.13 181.841 1557.6 184.106C1558.51 187.242 1565.44 184.36 1565.18 188.671C1563.21 191.262 1557.23 189.882 1553.1 190.185C1554.02 196.094 1565.74 191.202 1565.18 198.54C1561.18 201.458 1553.88 196.796 1548.5 196.263C1550.49 200.211 1560.86 199.412 1559.11 204.619C1547.03 204.788 1535.37 198.068 1527.28 191.71C1518.51 191.516 1511.45 193.042 1502.28 192.461C1504.7 197.644 1510.49 200.937 1515.17 203.868C1519.84 206.798 1525.46 209.414 1530.33 212.223C1530.92 215.42 1532.1 219.489 1531.07 222.092C1522.35 223.993 1516.11 228.353 1508.34 231.21C1507.14 239.687 1507.28 249.374 1506.07 257.851C1493.43 266.424 1476.13 270.311 1464.44 279.817C1459.32 279.732 1457.19 282.65 1453.84 284.37C1449.09 283.51 1448.68 284.2 1445.5 285.896C1423.57 275.978 1408.06 259.57 1391.7 244.107C1393.04 237.592 1390.2 227.008 1392.46 219.791C1386.15 214.718 1380.38 209.123 1372.76 205.357C1371.13 202.269 1372.48 198.83 1373.51 196.239C1381.09 194.52 1388 190.439 1394.73 187.121C1407.81 180.691 1420.57 174.576 1434.89 168.134C1442.57 164.67 1449.38 161.292 1458.38 159.015H1458.33ZM1489.41 249.423C1494.04 248.405 1488.6 245.935 1491.68 243.368C1487.86 243.852 1490.11 246.468 1486.36 244.131C1484.7 245.911 1482.49 247.994 1479.55 246.407C1479.13 247.764 1479.16 249.556 1478.03 250.21C1477.39 247.073 1475.06 252.632 1471.99 250.21C1471.76 251.239 1470.91 251.663 1471.24 253.237C1468.54 253.031 1466.53 254.448 1464.42 257.039C1463.44 254.375 1460.79 260.563 1461.39 255.526C1457.17 255.998 1460.76 259.582 1459.11 262.355C1462.46 261.919 1465.15 259.352 1465.15 257.802C1465.31 258.662 1466 259.013 1466.66 259.328C1467.42 258.311 1467.39 256.494 1468.95 256.289V258.565C1471.28 258.032 1470.4 258.032 1472.73 258.565C1473.4 254.424 1475.14 251.3 1479.55 250.96C1478.11 254.593 1480.29 258.117 1478.03 261.604C1480.44 261.798 1481.65 260.696 1481.82 258.565C1478.56 257.524 1483.89 253.019 1481.06 250.21C1483.48 249.859 1483.73 247.316 1486.36 247.17C1486.68 248.999 1484.99 248.817 1485.61 250.96C1490.44 251.106 1484.63 245.293 1490.15 246.407C1490.32 247.848 1489.3 248.091 1489.41 249.447V249.423ZM1456.06 166.608C1431.36 178.317 1403.41 186.77 1381.79 201.555C1397.66 214.33 1415.22 226.27 1431.05 238.028C1436.65 242.181 1443.23 244.773 1447.73 250.137C1465.62 239.936 1484.11 230.818 1503.09 222.831C1509.59 220.058 1517.18 218.968 1522.03 213.713C1517.97 210.08 1512.44 206.447 1506.88 202.318C1502.24 198.891 1495.64 192.134 1490.96 191.686C1481.19 190.742 1476.47 201.567 1466.71 203.795C1466.11 207.585 1469.37 207.513 1467.47 210.625C1460.97 217.176 1443.04 208.13 1454.59 200.756C1456.9 200.538 1457.53 203.178 1459.14 201.507C1466.51 195.73 1475.34 191.42 1484.9 187.835C1476.8 179.25 1466.51 172.856 1456.11 166.559L1456.06 166.608ZM1539.4 182.568C1543.25 182.774 1547.11 182.257 1550.77 181.042C1546.96 179.722 1543.08 180.594 1539.4 182.568ZM1500.75 187.884C1502.62 188.005 1503.89 187.484 1504.53 186.37C1503.1 186.697 1499.96 185.341 1500.75 187.884ZM1540.91 188.647C1546.09 189.179 1553.14 190.015 1556.81 187.121C1552.56 186.14 1543.13 185.208 1540.91 188.647ZM1524.24 188.647C1523.69 188.27 1523.07 188.008 1522.42 187.877C1521.77 187.745 1521.1 187.748 1520.45 187.884C1519.24 190.184 1524.37 189.882 1524.24 188.647ZM1555.3 194.701C1550.05 193.381 1546.59 190.257 1539.38 190.899C1542.37 193.999 1550.86 195.585 1555.3 194.701ZM1459.89 209.898C1461.89 209.898 1464.34 210.322 1464.43 208.372C1463.84 208.203 1463.55 207.743 1463.67 206.859C1461.46 206.859 1459.4 207.125 1459.89 209.898ZM1511.41 225.083C1512.01 225.128 1512.6 225.011 1513.13 224.745C1513.67 224.478 1514.12 224.072 1514.44 223.569C1512.72 223.352 1511.59 223.751 1511.41 225.083ZM1396.99 241.806C1404.79 249.459 1412.62 258.141 1420.48 264.595C1428.34 271.05 1437.13 274.658 1445.49 280.543C1448.15 274.489 1446.11 267.223 1446.24 259.28C1428.64 249.592 1415.02 235.885 1398.51 225.083C1396.33 228.982 1397.12 235.848 1396.99 241.806ZM1497.78 231.162C1502.38 229.885 1506.73 227.838 1510.65 225.107C1505.59 226.318 1499.99 227.081 1497.78 231.162ZM1484.13 237.217C1486.4 236.127 1486.71 237.834 1488.68 236.454V234.177C1487.72 234.227 1486.79 234.536 1485.99 235.071C1485.19 235.606 1484.54 236.347 1484.13 237.217ZM1497.78 244.058C1497.78 242.702 1499.8 239.638 1497.78 238.742C1497.06 239.384 1496.15 243.586 1497.78 244.058ZM1493.98 242.533C1493.98 242.533 1493.98 243.283 1493.98 243.295C1489.95 245.717 1496.52 242.956 1493.98 242.533ZM1482.56 250.186C1482.68 251.082 1482.42 252.341 1483.32 252.462C1483.2 251.457 1485.87 249.628 1484.07 249.423C1483.91 250.016 1483.44 250.307 1482.56 250.186ZM1460.61 254.024C1462.12 253.358 1460.81 250.173 1459.85 252.51C1460.31 252.51 1460.75 252.619 1460.61 253.261C1460.19 253.261 1459.74 253.879 1460.61 254.024ZM1488.6 254.024C1488.38 255.768 1488.78 256.882 1490.11 257.064C1490.95 255.853 1492.52 255.489 1492.38 253.261C1491.73 253.131 1491.06 253.131 1490.41 253.262C1489.76 253.393 1489.14 253.652 1488.6 254.024ZM1452.22 263.905C1455.07 262.549 1451.7 259.679 1453.74 257.851C1454.95 257.851 1454.16 259.958 1455.25 260.127V254.811C1450.42 253.6 1450.77 261.435 1452.22 263.929V263.905ZM1485.56 257.851C1485.78 257.941 1486 257.985 1486.23 257.978C1486.46 257.972 1486.69 257.915 1486.89 257.813C1487.1 257.71 1487.28 257.564 1487.42 257.384C1487.57 257.205 1487.67 256.996 1487.72 256.773C1487.78 256.55 1487.78 256.317 1487.74 256.091C1487.7 255.865 1487.61 255.652 1487.47 255.465C1487.34 255.278 1487.16 255.123 1486.96 255.01C1486.76 254.897 1486.54 254.83 1486.31 254.811C1486.08 255.841 1485.24 256.264 1485.56 257.851ZM1482.53 257.851H1484.8V256.337H1482.56V257.851H1482.53ZM1471.17 260.89C1471.66 260.952 1472.17 260.833 1472.58 260.556C1473 260.278 1473.3 259.859 1473.44 259.376C1472.23 259.449 1470.81 259.279 1471.17 260.89ZM1471.17 264.692C1475.09 265.625 1473.32 262.028 1474.2 261.653C1475.26 261.653 1475.06 263.857 1475.71 262.404C1475.11 259.594 1470.31 261.495 1471.17 264.692ZM1466.61 267.732C1466.61 265.431 1470.43 266.993 1470.41 264.692C1469.4 264.692 1469.72 263.36 1468.9 263.167C1469.39 265.516 1463.72 265.504 1466.61 267.732ZM1481.01 267.732C1483.42 267.238 1485.56 265.887 1487.05 263.929C1483.95 264.099 1482.36 265.806 1481.01 267.732ZM1452.22 270.008C1452.83 269.463 1454.25 264.753 1451.47 265.443C1452.18 268.059 1449.56 269.294 1452.27 269.936L1452.22 270.008Z" fill="white" fill-opacity="0.22"/>
</svg>
